{
    "local": {
        "rsa_private_key_path": "/Users/youruser/.ssh/id_rsa"
    },
    "development": {
        "app_server_project_path": "/home/yourremoteuser/yourproject.com",
        "app_server_user": "yourremoteuser",
        "app_server_host": "123.45.678.99",
        "app_server_ssh_port": 12345,
        "db_server_user": "yourremoteuser",
        "db_server_host": "123.45.678.99",
        "db_server_ssh_port": 12345
    },
    "production": {
        "app_server_project_path": "/home/yourremoteuser/yourproject.com",
        "app_server_user": "yourremoteuser",
        "app_server_host": "123.45.678.99",
        "app_server_ssh_port": 12345,
        "db_server_user": "yourremoteuser",
        "db_server_host": "123.45.678.99",
        "db_server_ssh_port": 12345
    }
}